0 -1
0.00050345761681480639 -1.0317279334980674
0.0020133235281155626 -1.0634239196565647
0.0045280774269154112 -1.0950560433041827
0.0080451871692046595 -1.126592453573749
0.0125611113236056 -1.1580013959733497
0.018071302737293293 -1.1892512443604102
0.024570213114592954 -1.2203105327865407
0.032051298603643641 -1.2511479871810791
0.04050702638550252 -1.2817325568414295
0.049928882259054674 -1.312033445698487
0.060307379214091572 -1.3420201433256687
0.071632066983927323 -1.3716624556603274
0.083891542567930411 -1.4009305354066139
0.097073461713378828 -1.4297949120891715
0.11116455134507652 -1.4582265217274104
0.12615062293021495 -1.4861967361004684
0.14201658676502282 -1.5136773915734061
0.15874646716881879 -1.5406408174555977
0.1763234185701672 -1.5670598638627706
0.19472974246894126 -1.5929079290546402
0.21394690525721261 -1.6181589862206054
0.23395555688102188 -1.6427876096865393
0.25473555032424522 -1.6667690005162914
0.27626596189492969 -1.6900790114821118
0.29852511229367873 -1.7126941713788628
0.32149058844286771 -1.7345917086575331
0.34513926605471479 -1.7557495743542582
0.3694473329154776 -1.7761464642917568
0.39439031286233328 -1.7957618405308322
0.41994309042880174 -1.8145759520503355
0.44607993613388952 -1.8325698546347713
0.47277453238949729 -1.8497254299495141
0.50000000000000033 -1.8660254037844388
0.52772892522731674 -1.8814533634475819
0.55593338739422604 -1.895993774291336
0.58458498699811368 -1.9096319953545184
0.61365487430687127 -1.9223542941045815
0.643113778408128 -1.9341478602651065
0.67293203668257817 -1.9450008187146683
0.7030796246717248 -1.9549022414440738
0.73352618630996447 -1.9638421585599419
0.76424106449057305 -1.9718115683235418
0.79519333193480946 -1.9788024462147789
0.8263518223330697 -1.9848077530122081
0.85768516172671472 -1.9898214418809328
0.88916180009898882 -1.9938384644612541
0.92075004314321118 -1.9968547759519422
0.95241808417625728 -1.9988673391830081
0.98413403616519235 -1.9998741276738752
1.0158659638348082 -1.9998741276738752
1.0475819158237423 -1.9988673391830081
1.0792499568567884 -1.9968547759519424
1.1108381999010108 -1.9938384644612541
1.1423148382732848 -1.9898214418809328
1.1736481776669301 -1.9848077530122081
1.204806668065191 -1.9788024462147786
1.2357589355094265 -1.9718115683235418
1.2664738136900351 -1.9638421585599422
1.296920375328275 -1.9549022414440738
1.3270679633174216 -1.9450008187146686
1.3568862215918718 -1.9341478602651068
1.3863451256931283 -1.9223542941045815
1.4154150130018861 -1.9096319953545184
1.4440666126057735 -1.8959937742913362
1.4722710747726828 -1.8814533634475819
1.5 -1.8660254037844386
1.5272254676105024 -1.8497254299495145
1.5539200638661101 -1.8325698546347715
1.5800569095711978 -1.8145759520503359
1.6056096871376671 -1.7957618405308318
1.6305526670845221 -1.7761464642917573
1.6548607339452852 -1.7557495743542582
1.6785094115571315 -1.7345917086575338
1.7014748877063213 -1.7126941713788628
1.7237340381050701 -1.690079011482112
1.7452644496757546 -1.6667690005162918
1.7660444431189779 -1.6427876096865397
1.7860530947427873 -1.6181589862206054
1.8052702575310589 -1.5929079290546402
1.8236765814298324 -1.5670598638627713
1.8412535328311812 -1.5406408174555974
1.8579834132349771 -1.5136773915734063
1.8738493770697848 -1.4861967361004687
1.8888354486549233 -1.4582265217274106
1.9029265382866209 -1.429794912089172
1.9161084574320699 -1.4009305354066133
1.9283679330160723 -1.3716624556603281
1.9396926207859084 -1.3420201433256684
1.9500711177409453 -1.312033445698487
1.9594929736144975 -1.2817325568414297
1.9679487013963564 -1.2511479871810793
1.9754297868854069 -1.2203105327865409
1.9819286972627068 -1.1892512443604097
1.9874388886763943 -1.1580013959733504
1.9919548128307953 -1.126592453573749
1.9954719225730846 -1.0950560433041825
1.9979866764718843 -1.0634239196565645
1.9994965423831852 -1.0317279334980678
2 -1.0
2 0
1.9994965423831852 0.031727933498067649
1.9979866764718843 0.063423919656564506
1.9954719225730846 0.095056043304182672
1.9919548128307953 0.12659245357374926
1.9874388886763943 0.15800139597334989
1.9819286972627066 0.18925124436041021
1.9754297868854072 0.22031053278654064
1.9679487013963564 0.25114798718107922
1.9594929736144975 0.28173255684142967
1.9500711177409453 0.31203344569848707
1.9396926207859084 0.34202014332566871
1.9283679330160726 0.37166245566032757
1.9161084574320695 0.40093053540661372
1.9029265382866212 0.42979491208917164
1.8888354486549235 0.45822652172741041
1.873849377069785 0.48619673610046871
1.8579834132349771 0.51367739157340631
1.8412535328311812 0.54064081745559756
1.8236765814298328 0.56705986386277074
1.8052702575310586 0.5929079290546404
1.7860530947427875 0.61815898622060517
1.7660444431189781 0.64278760968653925
1.7452644496757548 0.66676900051629162
1.7237340381050701 0.69007901148211204
1.7014748877063213 0.71269417137886282
1.6785094115571322 0.73459170865753332
1.6548607339452852 0.75574957435425827
1.6305526670845225 0.77614646429175682
1.6056096871376666 0.7957618405308321
1.5800569095711983 0.81457595205033573
1.5539200638661104 0.83256985463477129
1.5272254676105024 0.84972542994951439
1.5 0.86602540378443871
1.4722710747726828 0.88145336344758207
1.444066612605774 0.89599377429133598
1.4154150130018865 0.90963199535451833
1.3863451256931285 0.92235429410458147
1.3568862215918718 0.93414786026510677
1.3270679633174216 0.94500081871466857
1.296920375328275 0.95490224144407387
1.2664738136900349 0.96384215855994204
1.2357589355094274 0.97181156832354165
1.2048066680651905 0.97880244621477874
1.1736481776669305 0.98480775301220802
1.1423148382732851 0.98982144188093268
1.1108381999010111 0.99383846446125412
1.0792499568567884 0.99685477595194238
1.0475819158237423 0.99886733918300796
1.015865963834808 0.99987412767387507
0.98413403616519202 0.99987412767387507
0.95241808417625773 0.99886733918300796
0.92075004314321141 0.99685477595194238
0.88916180009898904 0.99383846446125412
0.85768516172671472 0.98982144188093268
0.8263518223330697 0.98480775301220802
0.79519333193480923 0.97880244621477874
0.76424106449057283 0.97181156832354165
0.73352618630996491 0.96384215855994204
0.70307962467172525 0.95490224144407387
0.67293203668257839 0.94500081871466846
0.64311377840812822 0.93414786026510677
0.61365487430687127 0.92235429410458136
0.58458498699811368 0.90963199535451844
0.55593338739422582 0.89599377429133586
0.5277289252273174 0.88145336344758207
0.49999999999999989 0.8660254037844386
0.47277453238949751 0.84972542994951439
0.44607993613388974 0.8325698546347714
0.41994309042880196 0.81457595205033584
0.39439031286233317 0.79576184053083199
0.36944733291547749 0.77614646429175682
0.34513926605471501 0.75574957435425838
0.32149058844286793 0.73459170865753343
0.29852511229367862 0.71269417137886282
0.2762659618949298 0.69007901148211193
0.25473555032424533 0.66676900051629162
0.2339555568810221 0.64278760968653947
0.21394690525721249 0.61815898622060506
0.19472974246894137 0.5929079290546404
0.17632341857016731 0.56705986386277085
0.15874646716881868 0.54064081745559733
0.14201658676502293 0.51367739157340631
0.12615062293021506 0.48619673610046871
0.11116455134507663 0.45822652172741052
0.097073461713378717 0.42979491208917142
0.0838915425679303 0.40093053540661361
0.071632066983927434 0.37166245566032757
0.060307379214091683 0.34202014332566888
0.049928882259054563 0.31203344569848696
0.040507026385502631 0.28173255684142962
0.032051298603643752 0.25114798718107928
0.024570213114592954 0.22031053278654081
0.018071302737293293 0.18925124436041005
0.012561111323605711 0.15800139597334986
0.0080451871692046595 0.12659245357374935
0.0045280774269154112 0.095056043304182436
0.0020133235281155626 0.063423919656564395
0.00050345761681491741 0.031727933498067656
0 0
